<svg width="100%" height="100%" preserveAspectRatio="none" viewBox="0 0 80 30" fill="none" xmlns="http://www.w3.org/2000/svg">
<path d="M67.7886 27.3738C78.1061 24.512 79.6852 19.8392 79.9678 15.5288C80.2467 11.2752 78.8757 6.74535 69.3401 3.70901C59.9432 0.716841 45.2238 -0.670005 32.1826 0.312994C20.8913 1.16409 16.3124 5.12251 10.0441 8.17852C5.84861 10.2239 3.70807 12.3818 2.50424 14.782C1.02969 17.7221 -2.26293 20.7797 2.42494 23.37C8.12734 26.5209 17.9267 28.8883 29.2934 29.5846C42.6029 30.3999 57.6448 30.1875 67.7886 27.3738Z" fill="black"/>
</svg>
