<svg width="100%" height="100%" preserveAspectRatio="none" viewBox="0 0 80 30" fill="none" xmlns="http://www.w3.org/2000/svg">
<path d="M67.7886 2.62616C78.1061 5.48797 79.6852 10.1608 79.9678 14.4712C80.2467 18.7248 78.8757 23.2546 69.3401 26.291C59.9432 29.2832 45.2238 30.67 32.1826 29.687C20.8913 28.8359 16.3124 24.8775 10.0441 21.8215C5.84861 19.7761 3.70807 17.6182 2.50424 15.218C1.02969 12.2779 -2.26293 9.22032 2.42494 6.63C8.12734 3.47909 17.9267 1.11168 29.2934 0.415405C42.6029 -0.399868 57.6448 -0.187467 67.7886 2.62616Z" fill="black"/>
</svg>
